{
  "runtimeTarget": {
    "name": ".NETStandard,Version=v2.1/",
    "signature": ""
  },
  "compilationOptions": {},
  "targets": {
    ".NETStandard,Version=v2.1": {},
    ".NETStandard,Version=v2.1/": {
      "AverageVolumeJump/1.0.0": {
        "dependencies": {
          "AudioGrader.Common": "1.0.0",
          "ConfigurationProviders": "1.0.0",
          "NWaves": "0.9.3",
          "NWavesExtensions": "1.0.0",
          "VoiceActivityDetector": "1.0.0"
        },
        "runtime": {
          "AverageVolumeJump.dll": {}
        }
      },
      "Linq.Extras/3.0.0": {
        "runtime": {
          "lib/netstandard2.0/Linq.Extras.dll": {
            "assemblyVersion": "3.0.0.0",
            "fileVersion": "3.0.0.0"
          }
        }
      },
      "Newtonsoft.Json/12.0.3": {
        "runtime": {
          "lib/netstandard2.0/Newtonsoft.Json.dll": {
            "assemblyVersion": "12.0.0.0",
            "fileVersion": "12.0.3.23909"
          }
        }
      },
      "AudioGrader.Common/1.0.0": {
        "dependencies": {
          "Newtonsoft.Json": "12.0.3"
        },
        "runtime": {
          "AudioGrader.Common.dll": {}
        }
      },
      "ConfigurationProviders/1.0.0": {
        "dependencies": {
          "AudioGrader.Common": "1.0.0",
          "Newtonsoft.Json": "12.0.3"
        },
        "runtime": {
          "ConfigurationProviders.dll": {}
        }
      },
      "NWaves/0.9.3": {
        "runtime": {
          "NWaves.dll": {}
        }
      },
      "NWavesExtensions/1.0.0": {
        "dependencies": {
          "AudioGrader.Common": "1.0.0",
          "NWaves": "0.9.3"
        },
        "runtime": {
          "NWavesExtensions.dll": {}
        }
      },
      "VoiceActivityDetector/1.0.0": {
        "dependencies": {
          "Linq.Extras": "3.0.0",
          "NWaves": "0.9.3",
          "Newtonsoft.Json": "12.0.3"
        },
        "runtime": {
          "VoiceActivityDetector.dll": {}
        }
      }
    }
  },
  "libraries": {
    "AverageVolumeJump/1.0.0": {
      "type": "project",
      "serviceable": false,
      "sha512": ""
    },
    "Linq.Extras/3.0.0": {
      "type": "package",
      "serviceable": true,
      "sha512": "sha512-hSDEAau+yaJjq8JiCQ6nUGPJfzsgaQpUpJpplYe9gBbA6zv02z092JEcGnETCwWk3W6HYDgVFE4Y9Im/HOhXMg==",
      "path": "linq.extras/3.0.0",
      "hashPath": "linq.extras.3.0.0.nupkg.sha512"
    },
    "Newtonsoft.Json/12.0.3": {
      "type": "package",
      "serviceable": true,
      "sha512": "sha512-6mgjfnRB4jKMlzHSl+VD+oUc1IebOZabkbyWj2RiTgWwYPPuaK1H97G1sHqGwPlS5npiF5Q0OrxN1wni2n5QWg==",
      "path": "newtonsoft.json/12.0.3",
      "hashPath": "newtonsoft.json.12.0.3.nupkg.sha512"
    },
    "AudioGrader.Common/1.0.0": {
      "type": "project",
      "serviceable": false,
      "sha512": ""
    },
    "ConfigurationProviders/1.0.0": {
      "type": "project",
      "serviceable": false,
      "sha512": ""
    },
    "NWaves/0.9.3": {
      "type": "project",
      "serviceable": false,
      "sha512": ""
    },
    "NWavesExtensions/1.0.0": {
      "type": "project",
      "serviceable": false,
      "sha512": ""
    },
    "VoiceActivityDetector/1.0.0": {
      "type": "project",
      "serviceable": false,
      "sha512": ""
    }
  }
}